…
## Augment

### Returns fitted value, SE, residual, cooks, and some other good stuff. Useful for plotting (but can't return CI... sigh)


```r
augment(mod_europe, data = gapminder_europe)
```

```
## # A tibble: 360 x 13
##    country continent  year lifeExp    pop gdpPercap .fitted .se.fit .resid
##    <fct>   <fct>     <int>   <dbl>  <int>     <dbl>   <dbl>   <dbl>  <dbl>
##  1 Albania Europe     1952    55.2 1.28e6     1601.    65.8   0.382 -10.6 
##  2 Albania Europe     1957    59.3 1.48e6     1942.    66.9   0.334  -7.63
##  3 Albania Europe     1962    64.8 1.73e6     2313.    68.0   0.289  -3.20
##  4 Albania Europe     1967    66.2 1.98e6     2760.    69.1   0.251  -2.91
##  5 Albania Europe     1972    67.7 2.26e6     3313.    70.2   0.221  -2.55
##  6 Albania Europe     1977    68.9 2.51e6     3533.    71.3   0.205  -2.42
##  7 Albania Europe     1982    70.4 2.78e6     3631.    72.5   0.205  -2.04
##  8 Albania Europe     1987    72   3.08e6     3739.    73.6   0.221  -1.57
##  9 Albania Europe     1992    71.6 3.33e6     2497.    74.7   0.251  -3.10
## 10 Albania Europe     1997    73.0 3.43e6     3193.    75.8   0.289  -2.84
## # … with 350 more rows, and 4 more variables: .hat <dbl>, .sigma <dbl>,
## #   .cooksd <dbl>, .std.resid <dbl>
```
…
```r
augment(pbfi_gender_A, data = psychbfi_mean)
```

```
## # A tibble: 2,800 x 15
##    gender education   age     A     C     E     N     O .fitted .se.fit .resid
##    <fct>  <fct>     <int> <dbl> <dbl> <dbl> <dbl> <dbl>   <dbl>   <dbl>  <dbl>
##  1 male   <NA>         16   4     2.8  3.8    4.2   3      4.39  0.0290 -0.386
##  2 female <NA>         18   4.2   4    5      3.2   4      4.78  0.0203 -0.582
##  3 female <NA>         17   3.8   4    4.2    3.4   4.8    4.78  0.0203 -0.982
##  4 female <NA>         17   4.6   3    3.6    4.2   3.2    4.78  0.0203 -0.182
##  5 male   <NA>         17   4     4.4  4.8    3.8   3.6    4.39  0.0290 -0.386
##  6 female some col…    21   4.6   5.6  5.6    4     5      4.78  0.0203 -0.182
##  7 male   <NA>         18   4.6   4.4  4.2    5.6   5.4    4.39  0.0290  0.214
##  8 male   hs           19   2.6   3.4  2.4    2.8   4.2    4.39  0.0290 -1.79 
##  9 male   some hs      19   3.6   4    3.25   3.4   5      4.39  0.0290 -0.786
## 10 female <NA>         17   5.4   5.6  4.8    2.8   5.2    4.78  0.0203  0.618
## # … with 2,790 more rows, and 4 more variables: .hat <dbl>, .sigma <dbl>,
## #   .cooksd <dbl>, .std.resid <dbl>
```
…
