…
## Augment

### Returns fitted value, SE, residual, cooks, and some other good stuff. Useful for plotting (but can't return CI... sigh)


```r
augment(mod_europe, data = gapminder_europe)
```

```
## # A tibble: 360 x 13
##    country continent  year lifeExp    pop gdpPercap .fitted .se.fit .resid
##    <fct>   <fct>     <int>   <dbl>  <int>     <dbl>   <dbl>   <dbl>  <dbl>
##  1 Albania Europe     1952    55.2 1.28e6     1601.    65.8   0.382 -10.6 
##  2 Albania Europe     1957    59.3 1.48e6     1942.    66.9   0.334  -7.63
##  3 Albania Europe     1962    64.8 1.73e6     2313.    68.0   0.289  -3.20
##  4 Albania Europe     1967    66.2 1.98e6     2760.    69.1   0.251  -2.91
##  5 Albania Europe     1972    67.7 2.26e6     3313.    70.2   0.221  -2.55
##  6 Albania Europe     1977    68.9 2.51e6     3533.    71.3   0.205  -2.42
##  7 Albania Europe     1982    70.4 2.78e6     3631.    72.5   0.205  -2.04
##  8 Albania Europe     1987    72   3.08e6     3739.    73.6   0.221  -1.57
##  9 Albania Europe     1992    71.6 3.33e6     2497.    74.7   0.251  -3.10
## 10 Albania Europe     1997    73.0 3.43e6     3193.    75.8   0.289  -2.84
## # … with 350 more rows, and 4 more variables: .hat <dbl>, .sigma <dbl>,
## #   .cooksd <dbl>, .std.resid <dbl>
```
…
```r
augment(pbfi_gender_A, data = psychbfi_mean)
```

```
## # A tibble: 2,800 x 41
##    ID       A1    A2    A3    A4    A5    C1    C2    C3    C4    C5    E1    E2
##    <chr> <int> <int> <int> <int> <int> <int> <int> <int> <int> <int> <int> <int>
##  1 61617     2     4     3     4     4     2     3     3     4     4     3     3
##  2 61618     2     4     5     2     5     5     4     4     3     4     1     1
##  3 61620     5     4     5     4     4     4     5     4     2     5     2     4
##  4 61621     4     4     6     5     5     4     4     3     5     5     5     3
##  5 61622     2     3     3     4     5     4     4     5     3     2     2     2
##  6 61623     6     6     5     6     5     6     6     6     1     3     2     1
##  7 61624     2     5     5     3     5     5     4     4     2     3     4     3
##  8 61629     4     3     1     5     1     3     2     4     2     4     3     6
##  9 61630     4     3     6     3     3     6     6     3     4     5     5     3
## 10 61633     2     5     6     6     5     6     5     6     2     1     2     2
## # … with 2,790 more rows, and 28 more variables: E3 <int>, E4 <int>, E5 <int>,
## #   N1 <int>, N2 <int>, N3 <int>, N4 <int>, N5 <int>, O1 <int>, O2 <int>,
## #   O3 <int>, O4 <int>, O5 <int>, gender <int>, education <int>, age <int>,
## #   A_mean <dbl>, C_mean <dbl>, N_mean <dbl>, O_mean <dbl>, E_mean <dbl>,
## #   .fitted <dbl>, .se.fit <dbl>, .resid <dbl>, .hat <dbl>, .sigma <dbl>,
## #   .cooksd <dbl>, .std.resid <dbl>
```
…
