…
2. Use `tidyr::separate()` to split the name into two columns: "first" and 
"last". Then, re-unite them with `tidyr::unite()`.


```r
guest_long %>% 
  separate(name, into = c("First", "Last")) %>% 
  unite(col = "name", First:Last, sep = " ")
```

```
## # A tibble: 90 x 5
##    party name            event   attendance meal      
##    <dbl> <chr>           <chr>   <chr>      <chr>     
##  1     1 Sommer Medrano  wedding PENDING    PENDING   
##  2     1 Sommer Medrano  brunch  PENDING    PENDING   
##  3     1 Sommer Medrano  golf    PENDING    <NA>      
##  4     1 Phillip Medrano wedding CONFIRMED  vegetarian
##  5     1 Phillip Medrano brunch  CONFIRMED  Menu C    
##  6     1 Phillip Medrano golf    CONFIRMED  <NA>      
##  7     1 Blanka Medrano  wedding CONFIRMED  chicken   
##  8     1 Blanka Medrano  brunch  CONFIRMED  Menu A    
##  9     1 Blanka Medrano  golf    CONFIRMED  <NA>      
## 10     1 Emaan Medrano   wedding PENDING    PENDING   
## # … with 80 more rows
```
…
5. Put the data back to the way it was.


```r
guest_long %>% 
  pivot_wider(id_cols = c("party", "name"), 
              names_from  = event,
              values_from = c("attendance", "meal"))
```

```
## # A tibble: 30 x 8
##    party name  attendance_wedd… attendance_brun… attendance_golf meal_wedding
##    <dbl> <chr> <chr>            <chr>            <chr>           <chr>       
##  1     1 Somm… PENDING          PENDING          PENDING         PENDING     
##  2     1 Phil… CONFIRMED        CONFIRMED        CONFIRMED       vegetarian  
##  3     1 Blan… CONFIRMED        CONFIRMED        CONFIRMED       chicken     
##  4     1 Emaa… PENDING          PENDING          PENDING         PENDING     
##  5     2 Blai… CONFIRMED        CONFIRMED        CONFIRMED       chicken     
##  6     2 Nige… CANCELLED        CANCELLED        CANCELLED       <NA>        
##  7     3 Sine… PENDING          PENDING          PENDING         PENDING     
##  8     4 Ayra… PENDING          PENDING          PENDING         vegetarian  
##  9     5 Atla… PENDING          PENDING          PENDING         PENDING     
## 10     5 Denz… CONFIRMED        CONFIRMED        CONFIRMED       fish        
## # … with 20 more rows, and 2 more variables: meal_brunch <chr>, meal_golf <chr>
```

6. You also have a list of emails for each party, in this worksheet under the 
   object `email`. Change this so that each person gets their own row. 
   Use `tidyr::separate_rows()`


```r
email %>% 
  separate_rows(guest, sep = ",")
```

```
## # A tibble: 28 x 2
##    guest              email              
##    <chr>              <chr>              
##  1 "Sommer Medrano"   sommm@gmail.com    
##  2 " Phillip Medrano" sommm@gmail.com    
##  3 " Blanka Medrano"  sommm@gmail.com    
##  4 " Emaan Medrano"   sommm@gmail.com    
##  5 "Blair Park"       bpark@gmail.com    
##  6 " Nigel Webb"      bpark@gmail.com    
##  7 "Sinead English"   singlish@hotmail.ca
##  8 "Ayra Marks"       marksa42@gmail.com 
##  9 "Jolene Welsh"     jw1987@hotmail.com 
## 10 " Hayley Booker"   jw1987@hotmail.com 
## # … with 18 more rows
```
…
```r
n <- 100
tibble(label = "Sample A",
             x = rnorm(n),
             y = x + sd(x))
```

```
## # A tibble: 100 x 3
##    label          x      y
##    <chr>      <dbl>  <dbl>
##  1 Sample A -0.0412  0.963
##  2 Sample A -0.254   0.750
##  3 Sample A  0.174   1.18 
##  4 Sample A -0.591   0.413
##  5 Sample A  0.606   1.61 
##  6 Sample A -2.01   -1.00 
##  7 Sample A  0.373   1.38 
##  8 Sample A -1.39   -0.382
##  9 Sample A -0.0364  0.968
## 10 Sample A  0.413   1.42 
## # … with 90 more rows
```
…
```r
n <- 100
mu <- c(-5, 0, 5)
sd <- c(1, 3, 10)
nesting(mu = mu, sd = sd) %>% 
  group_by_all() %>% 
  mutate(z = list(rnorm(n, mu, sd))) %>% 
  unnest()
```

```
## # A tibble: 300 x 3
## # Groups:   mu, sd [3]
##       mu    sd     z
##    <dbl> <dbl> <dbl>
##  1    -5     1 -3.68
##  2    -5     1 -5.61
##  3    -5     1 -4.55
##  4    -5     1 -4.90
##  5    -5     1 -3.86
##  6    -5     1 -4.34
##  7    -5     1 -5.43
##  8    -5     1 -5.39
##  9    -5     1 -5.87
## 10    -5     1 -3.95
## # … with 290 more rows
```
…
