…
```
## # A tibble: 1 x 3
##   height  mass birth_year
##    <dbl> <dbl>      <dbl>
## 1   174.  97.3       87.6
```

```r
gapminder %>% 
  group_by(continent, year) #remember, group_by does not arrange them differently
```

```
## # A tibble: 1,704 x 6
## # Groups:   continent, year [60]
##    country     continent  year lifeExp      pop gdpPercap
##    <fct>       <fct>     <int>   <dbl>    <int>     <dbl>
##  1 Afghanistan Asia       1952    28.8  8425333      779.
##  2 Afghanistan Asia       1957    30.3  9240934      821.
##  3 Afghanistan Asia       1962    32.0 10267083      853.
##  4 Afghanistan Asia       1967    34.0 11537966      836.
##  5 Afghanistan Asia       1972    36.1 13079460      740.
##  6 Afghanistan Asia       1977    38.4 14880372      786.
##  7 Afghanistan Asia       1982    39.9 12881816      978.
##  8 Afghanistan Asia       1987    40.8 13867957      852.
##  9 Afghanistan Asia       1992    41.7 16317921      649.
## 10 Afghanistan Asia       1997    41.8 22227415      635.
## # … with 1,694 more rows
```

```r
gapminder %>% 
  group_by(continent, year) %>% 
  summarize(mu = mean(lifeExp),
            sigma = sd(lifeExp))
```

```
## # A tibble: 60 x 4
## # Groups:   continent [5]
##    continent  year    mu sigma
##    <fct>     <int> <dbl> <dbl>
##  1 Africa     1952  39.1  5.15
##  2 Africa     1957  41.3  5.62
##  3 Africa     1962  43.3  5.88
##  4 Africa     1967  45.3  6.08
##  5 Africa     1972  47.5  6.42
##  6 Africa     1977  49.6  6.81
##  7 Africa     1982  51.6  7.38
##  8 Africa     1987  53.3  7.86
##  9 Africa     1992  53.6  9.46
## 10 Africa     1997  53.6  9.10
## # … with 50 more rows
```

```r
#You could use this to show mean (sd) for experimental and control group (e.g. group_by condition)

gapminder %>% 
  group_by(smallLifeExp = lifeExp < 60) #can create a new variable by which to group
```

```
## # A tibble: 1,704 x 7
## # Groups:   smallLifeExp [2]
##    country     continent  year lifeExp      pop gdpPercap smallLifeExp
##    <fct>       <fct>     <int>   <dbl>    <int>     <dbl> <lgl>       
##  1 Afghanistan Asia       1952    28.8  8425333      779. TRUE        
##  2 Afghanistan Asia       1957    30.3  9240934      821. TRUE        
##  3 Afghanistan Asia       1962    32.0 10267083      853. TRUE        
##  4 Afghanistan Asia       1967    34.0 11537966      836. TRUE        
##  5 Afghanistan Asia       1972    36.1 13079460      740. TRUE        
##  6 Afghanistan Asia       1977    38.4 14880372      786. TRUE        
##  7 Afghanistan Asia       1982    39.9 12881816      978. TRUE        
##  8 Afghanistan Asia       1987    40.8 13867957      852. TRUE        
##  9 Afghanistan Asia       1992    41.7 16317921      649. TRUE        
## 10 Afghanistan Asia       1997    41.8 22227415      635. TRUE        
## # … with 1,694 more rows
```

```r
gapminder %>% 
  group_by(country) %>% 
  summarize(n=n())
```

```
## # A tibble: 142 x 2
##    country         n
##    <fct>       <int>
##  1 Afghanistan    12
##  2 Albania        12
##  3 Algeria        12
##  4 Angola         12
##  5 Argentina      12
##  6 Australia      12
##  7 Austria        12
##  8 Bahrain        12
##  9 Bangladesh     12
## 10 Belgium        12
## # … with 132 more rows
```
…
```r
gap_inc <- gapminder %>% 
  arrange(year) %>% 
  group_by(country) %>% 
  mutate(gdpPercap_inc = round(gdpPercap - lag(gdpPercap), 2)) %>% 
  arrange(country)
#lag basically means the previous one. So gdpPercap minus the previous gdpPercap

gap_inc %>% 
  tidyr::drop_na()
```

```
## # A tibble: 1,562 x 7
## # Groups:   country [142]
##    country     continent  year lifeExp      pop gdpPercap gdpPercap_inc
##    <fct>       <fct>     <int>   <dbl>    <int>     <dbl>         <dbl>
##  1 Afghanistan Asia       1957    30.3  9240934      821.          41.4
##  2 Afghanistan Asia       1962    32.0 10267083      853.          32.2
##  3 Afghanistan Asia       1967    34.0 11537966      836.         -16.9
##  4 Afghanistan Asia       1972    36.1 13079460      740.         -96.2
##  5 Afghanistan Asia       1977    38.4 14880372      786.          46.1
##  6 Afghanistan Asia       1982    39.9 12881816      978.         192. 
##  7 Afghanistan Asia       1987    40.8 13867957      852.        -126. 
##  8 Afghanistan Asia       1992    41.7 16317921      649.        -203. 
##  9 Afghanistan Asia       1997    41.8 22227415      635.         -14  
## 10 Afghanistan Asia       2002    42.1 25268405      727.          91.4
## # … with 1,552 more rows
```
…
```r
psych::bfi %>%
  rownames_to_column(var = "ID") %>% 
  as_tibble() %>% 
  select(A1:A5) %>% 
  rowwise() %>% #each row is its own group (e.g. with participants)
  mutate(A_mean = mean(c(A1, A2, A3, A4, A5), na.rm = TRUE)) %>% #could use to produce mean score for each participant on items for a measure
  #the na.rm allows you to compute the mean even for individuals with missing data, etc.
  ungroup()
```

```
## # A tibble: 2,800 x 6
##       A1    A2    A3    A4    A5 A_mean
##    <int> <int> <int> <int> <int>  <dbl>
##  1     2     4     3     4     4    3.4
##  2     2     4     5     2     5    3.6
##  3     5     4     5     4     4    4.4
##  4     4     4     6     5     5    4.8
##  5     2     3     3     4     5    3.4
##  6     6     6     5     6     5    5.6
##  7     2     5     5     3     5    4  
##  8     4     3     1     5     1    2.8
##  9     4     3     6     3     3    3.8
## 10     2     5     6     6     5    4.8
## # … with 2,790 more rows
```
…
```
## Source: local data frame [2,800 x 8]
## Groups: <by row>
## 
## # A tibble: 2,800 x 8
##       C1    C2    C3    C4    C5 C_mean  C_sd C_min
##    <int> <int> <int> <int> <int>  <dbl> <dbl> <int>
##  1     2     3     3     4     4    3.2 0.837     2
##  2     5     4     4     3     4    4   0.707     3
##  3     4     5     4     2     5    4   1.22      2
##  4     4     4     3     5     5    4.2 0.837     3
##  5     4     4     5     3     2    3.6 1.14      2
##  6     6     6     6     1     3    4.4 2.30      1
##  7     5     4     4     2     3    3.6 1.14      2
##  8     3     2     4     2     4    3   1         2
##  9     6     6     3     4     5    4.8 1.30      3
## 10     6     5     6     2     1    4   2.35      1
## # … with 2,790 more rows
```
…
Some functions are **vectorized**, so you don't need `rowwise()`. 
For example, `pmin()` computes the "parallel min" across the vectors it receives:


```r
psych::bfi %>% 
  as_tibble() %>% 
  select(A1:A5) %>% 
  mutate(A_min = pmin(A1, A2, A3, A4, A5)) #pmin, not min
```

```
## # A tibble: 2,800 x 6
##       A1    A2    A3    A4    A5 A_min
##    <int> <int> <int> <int> <int> <int>
##  1     2     4     3     4     4     2
##  2     2     4     5     2     5     2
##  3     5     4     5     4     4     4
##  4     4     4     6     5     5     4
##  5     2     3     3     4     5     2
##  6     6     6     5     6     5     5
##  7     2     5     5     3     5     2
##  8     4     3     1     5     1     1
##  9     4     3     6     3     3     3
## 10     2     5     6     6     5     2
## # … with 2,790 more rows
```
…
`rowMeans()` computes the mean of each row of a data frame. We can use it by
putting `select()` inside of `mutate()`:



```r
psych::bfi %>% 
  as_tibble() %>% 
  select(A1:A5) %>% 
  mutate(A_mn = rowMeans(select(., A1:A5)),
         A_mn2 = rowMeans(select(., starts_with("A", ignore.case = FALSE))))
```

```
## # A tibble: 2,800 x 7
##       A1    A2    A3    A4    A5  A_mn A_mn2
##    <int> <int> <int> <int> <int> <dbl> <dbl>
##  1     2     4     3     4     4   3.4   3.4
##  2     2     4     5     2     5   3.6   3.6
##  3     5     4     5     4     4   4.4   4.4
##  4     4     4     6     5     5   4.8   4.8
##  5     2     3     3     4     5   3.4   3.4
##  6     6     6     5     6     5   5.6   5.6
##  7     2     5     5     3     5   4     4  
##  8     4     3     1     5     1   2.8   2.8
##  9     4     3     6     3     3   3.8   3.8
## 10     2     5     6     6     5   4.8   4.8
## # … with 2,790 more rows
```
…
